{
    "name": "rust-open-telemetry",
    "dockerComposeFile": "./docker-compose.yml",
    "service": "devcontainer",
    "workspaceFolder": "/workspaces/${localWorkspaceFolderBasename}",
    "customizations": {
        "vscode": {
            "extensions": [
                "waderyan.gitblame",
                "mhutchie.git-graph",
                "donjayamanne.githistory"
            ]
        }
    }
}
